{
    "relationships": [],
    "fields": [
        {
            "fieldName": "name",
            "fieldType": "String"
        },
        {
            "fieldName": "site",
            "fieldType": "String"
        },
        {
            "fieldName": "cnpj",
            "fieldType": "String"
        },
        {
            "fieldName": "address",
            "fieldType": "String"
        }
    ],
    "dto": "no",
    "service": "no",
    "entityTableName": "customer",
    "pagination": "pagination"
}
